runner,samples,result_avg,result_std,time_avg,time_std
serial,100000,0.682445,0.023112,0.0133,0.0026
serial,1000000,0.676252,0.008207,0.0926,0.0033
serial,10000000,0.676893,0.002239,0.8859,0.0088
serial,100000000,0.676493,0.000847,8.7511,0.0763
serial,1000000000,0.676732,0.000207,86.1618,0.8056
serial,10000000000,0.676734,0.000075,857.0700,2.3442
MPI-4,100000,0.684562,0.031444,0.0048,0.0004
MPI-4,1000000,0.679218,0.012796,0.0305,0.0040
MPI-4,10000000,0.677147,0.003438,0.2504,0.0174
MPI-4,100000000,0.676770,0.000664,2.2645,0.0299
MPI-4,1000000000,0.676871,0.000168,22.4577,0.1362
MPI-4,10000000000,0.676771,0.000119,223.4626,0.8012
MPI-8,100000,0.637578,0.024906,0.0044,0.0031
MPI-8,1000000,0.673282,0.007695,0.0227,0.0100
MPI-8,10000000,0.675730,0.002538,0.1617,0.0064
MPI-8,100000000,0.675801,0.001355,1.2247,0.0632
MPI-8,1000000000,0.676889,0.000307,11.5970,0.1531
MPI-8,10000000000,0.676788,0.000108,114.6038,0.4356
MPI-16,100000,0.679892,0.042230,0.0149,0.0110
MPI-16,1000000,0.674197,0.024437,0.0217,0.0158
MPI-16,10000000,0.675759,0.004860,0.0987,0.0237
MPI-16,100000000,0.676189,0.001134,0.8931,0.0776
MPI-16,1000000000,0.676704,0.000489,8.5939,0.1159
MPI-16,10000000000,0.676667,0.000122,84.7720,0.3518
openMP-4,100000,0.676080,0.033997,0.0045,0.0003
openMP-4,1000000,0.678556,0.007128,0.0303,0.0015
openMP-4,10000000,0.675602,0.001878,0.2398,0.0108
openMP-4,100000000,0.676585,0.000615,2.2324,0.0130
openMP-4,1000000000,0.676789,0.000148,22.2209,0.0836
openMP-4,10000000000,0.676804,0.000095,222.5309,0.1998
openMP-8,100000,0.684245,0.017993,0.0029,0.0005
openMP-8,1000000,0.676220,0.005651,0.0200,0.0017
openMP-8,10000000,0.675975,0.002096,0.1438,0.0090
openMP-8,100000000,0.676715,0.000797,1.2412,0.0789
openMP-8,1000000000,0.676580,0.000306,11.5053,0.1737
openMP-8,10000000000,0.676786,0.000045,114.5150,0.5691
openMP-16,100000,0.683583,0.023066,0.0030,0.0003
openMP-16,1000000,0.677445,0.009268,0.0133,0.0018
openMP-16,10000000,0.676716,0.001533,0.0844,0.0062
openMP-16,100000000,0.676492,0.000684,0.8302,0.0414
openMP-16,1000000000,0.676879,0.000157,8.1012,0.1879
openMP-16,10000000000,0.676704,0.000060,80.3625,1.1533
CUDA,100000,0.690252,0.025669,0.0005,0.0000
CUDA,1000000,0.679443,0.006324,0.0011,0.0000
CUDA,10000000,0.677507,0.002349,0.0029,0.0002
CUDA,100000000,0.676862,0.000561,0.0117,0.0018
CUDA,1000000000,0.676686,0.000196,0.0488,0.0020
CUDA,10000000000,0.676786,0.000044,0.4177,0.0025
